Megan|Fox|1700 Hadley St, Houston, TX 77003|8323214567|1
Scarlett|Johansson|2500-2598 Chenevert St, Houston, TX 77004|8325558888|3
Charlize|Theron|1607 Drew St, Houston, TX 77004|8324569874|5
Eva|Mendes|2918 La Branch St, Houston, TX 77004|8554447777|6
Maggie|Q|1304 Elgin St, Houston, TX 77004|2814569872|5